<?xml version="1.0" encoding="utf-8"?>
<!-- Generator: Adobe Illustrator 23.0.0, SVG Export Plug-In . SVG Version: 6.00 Build 0)  -->
<svg version="1.1" xmlns="http://www.w3.org/2000/svg" xmlns:xlink="http://www.w3.org/1999/xlink" x="0px" y="0px"
	 viewBox="0 0 64.34 64.34" style="enable-background:new 0 0 64.34 64.34;" xml:space="preserve">
<style type="text/css">
	.st0{display:none;fill:#FFFFFF;}
	.st1{fill:#0071BF;}
	.st2{fill:#FFFFFF;}
</style>
<g id="Vrstva_1">
	<path class="st0" d="M-155.62,607.34c0,0.75-0.65,1.41-1.39,1.42c-0.77,0.01-1.47-0.63-1.44-1.4c0.03-0.82,0.53-1.4,1.44-1.42
		C-156.25,605.92-155.62,606.58-155.62,607.34z"/>
</g>
<g id="Vrstva_2">
</g>
<g id="Vrstva_3">
</g>
<g id="Vrstva_3_kopie">
	<g>
		<path class="st1" d="M49.69,64.34H14.65C6.56,64.34,0,57.78,0,49.69V14.65C0,6.56,6.56,0,14.65,0h35.04
			c8.09,0,14.65,6.56,14.65,14.65v35.04C64.34,57.78,57.78,64.34,49.69,64.34z"/>
		<g>
			<path class="st2" d="M32.16,34.66c-5.56-5.24-11.09-10.45-16.68-15.73c11.15,0,22.2,0,33.36,0
				C43.25,24.21,37.72,29.42,32.16,34.66z"/>
			<path class="st2" d="M48.72,45.4c-11.07,0-22.02,0-32.97,0c-0.02-0.03-0.03-0.06-0.05-0.09c4.49-3.56,8.98-7.12,13.52-10.71
				c0.56,0.53,1.13,1.06,1.69,1.59c0.33,0.31,0.69,0.52,1.16,0.54c0.53,0.02,0.95-0.17,1.32-0.53c0.55-0.53,1.11-1.05,1.69-1.6
				C39.61,38.19,44.12,41.76,48.72,45.4z"/>
			<path class="st2" d="M50.59,19.99c0,8.17,0,16.23,0,24.39c-4.72-3.73-9.37-7.42-14.06-11.13C41.21,28.83,45.86,24.44,50.59,19.99
				z"/>
			<path class="st2" d="M27.79,33.24c-4.69,3.71-9.34,7.4-14.05,11.12c0-8.14,0-16.21,0-24.37C18.45,24.44,23.1,28.82,27.79,33.24z"
				/>
		</g>
	</g>
	<g>
		<g>
			<rect x="27.17" y="104.69" class="st0" width="10.01" height="7.98"/>
		</g>
	</g>
	<g>
		<g>
			<rect x="27.17" y="384.69" class="st0" width="10.01" height="7.98"/>
		</g>
	</g>
</g>
</svg>
