<?xml version="1.0" encoding="utf-8"?>
<!-- Generator: Adobe Illustrator 23.0.0, SVG Export Plug-In . SVG Version: 6.00 Build 0)  -->
<svg version="1.1" xmlns="http://www.w3.org/2000/svg" xmlns:xlink="http://www.w3.org/1999/xlink" x="0px" y="0px"
	 viewBox="0 0 64.34 64.34" style="enable-background:new 0 0 64.34 64.34;" xml:space="preserve">
<style type="text/css">
	.st0{display:none;fill:#FFFFFF;}
	.st1{fill:#00B056;}
	.st2{fill:#FFFFFF;}
</style>
<g id="Vrstva_1">
	<path class="st0" d="M-115.62,372.45c0,0.75-0.65,1.41-1.39,1.42c-0.77,0.01-1.47-0.63-1.44-1.4c0.03-0.82,0.53-1.4,1.44-1.42
		C-116.26,371.03-115.62,371.69-115.62,372.45z"/>
</g>
<g id="Vrstva_2">
</g>
<g id="Vrstva_3">
</g>
<g id="Vrstva_3_kopie">
	<g>
		<path class="st1" d="M49.69,64.34H14.65C6.56,64.34,0,57.78,0,49.69V14.65C0,6.56,6.56,0,14.65,0h35.04
			c8.09,0,14.65,6.56,14.65,14.65v35.04C64.34,57.78,57.78,64.34,49.69,64.34z"/>
		<path class="st2" d="M32.17,16.68c-11.91,0-21.57,6.98-21.57,15.6c0,4.52,2.68,8.58,6.93,11.43l-3.95,6.99l9.45-4.31
			c2.78,0.94,5.87,1.49,9.14,1.49c11.91,0,21.57-6.98,21.57-15.6C53.73,23.66,44.08,16.68,32.17,16.68z"/>
	</g>
</g>
</svg>
