<?xml version="1.0" encoding="utf-8"?>
<!-- Generator: Adobe Illustrator 23.0.0, SVG Export Plug-In . SVG Version: 6.00 Build 0)  -->
<svg version="1.1" xmlns="http://www.w3.org/2000/svg" xmlns:xlink="http://www.w3.org/1999/xlink" x="0px" y="0px"
	 viewBox="0 0 64.34 64.34" style="enable-background:new 0 0 64.34 64.34;" xml:space="preserve">
<style type="text/css">
	.st0{display:none;fill:#FFFFFF;}
	.st1{fill:#58595B;}
	.st2{fill:#FFFFFF;}
</style>
<g id="Vrstva_1">
	<path class="st0" d="M-232.03,958.41c0,0.75-0.65,1.41-1.39,1.42c-0.77,0.01-1.47-0.63-1.44-1.4c0.03-0.82,0.53-1.4,1.44-1.42
		C-232.66,957-232.03,957.65-232.03,958.41z"/>
</g>
<g id="Vrstva_2">
</g>
<g id="Vrstva_3">
</g>
<g id="Vrstva_3_kopie">
	<g>
		<g>
			<rect x="-49.24" y="455.76" class="st0" width="10.01" height="7.98"/>
		</g>
	</g>
	<g>
		<g>
			<rect x="-49.24" y="735.76" class="st0" width="10.01" height="7.98"/>
		</g>
	</g>
	<g>
		<path class="st1" d="M49.69,64.34H14.65C6.56,64.34,0,57.78,0,49.69V14.65C0,6.56,6.56,0,14.65,0h35.04
			c8.09,0,14.65,6.56,14.65,14.65v35.04C64.34,57.78,57.78,64.34,49.69,64.34z"/>
		<g>
			<path class="st2" d="M50.75,28.5c-0.85-0.01-1.7-0.03-2.55,0.01c-0.52,0.02-0.74-0.18-0.91-0.66c-0.31-0.88-0.67-1.75-1.08-2.58
				c-0.2-0.41-0.15-0.65,0.17-0.95c0.66-0.62,1.28-1.28,1.92-1.92c0.54-0.54,0.56-1.09,0.02-1.63c-1.4-1.41-2.8-2.82-4.21-4.21
				c-0.62-0.61-1.07-0.6-1.69,0c-0.65,0.63-1.3,1.26-1.92,1.93c-0.31,0.33-0.56,0.33-0.95,0.14c-0.87-0.42-1.76-0.79-2.66-1.12
				c-0.42-0.15-0.58-0.35-0.57-0.79c0.03-0.88,0.02-1.76,0-2.64c-0.02-0.93-0.31-1.23-1.22-1.24c-0.96-0.01-1.93,0-2.89,0
				c-0.96,0-1.93-0.01-2.89,0c-0.97,0.01-1.25,0.29-1.27,1.28c-0.02,0.88,0.03,1.76-0.03,2.64c-0.02,0.25-0.27,0.59-0.51,0.71
				c-0.92,0.44-1.86,0.83-2.82,1.18c-0.22,0.08-0.61,0.02-0.78-0.14c-0.7-0.62-1.34-1.3-2-1.97c-0.54-0.54-1.09-0.56-1.63-0.02
				c-1.41,1.4-2.82,2.79-4.22,4.21c-0.61,0.62-0.59,1.07,0,1.69c0.63,0.65,1.31,1.26,1.9,1.95c0.18,0.21,0.23,0.65,0.14,0.92
				c-0.29,0.86-0.71,1.67-1.01,2.52c-0.18,0.5-0.39,0.75-0.96,0.72c-0.88-0.05-1.76-0.01-2.64-0.01c-0.76,0-1.17,0.4-1.17,1.15
				c-0.01,1.98-0.01,3.97-0.01,5.95c0,0.76,0.37,1.17,1.14,1.18c0.82,0.01,1.65,0.05,2.47-0.01c0.68-0.05,1.01,0.18,1.21,0.85
				c0.25,0.83,0.69,1.6,0.98,2.42c0.09,0.25,0.05,0.68-0.11,0.86c-0.61,0.7-1.3,1.34-1.97,2c-0.54,0.54-0.55,1.08-0.01,1.63
				c1.4,1.4,2.8,2.82,4.21,4.21c0.6,0.59,1.08,0.58,1.69-0.01c0.61-0.59,1.23-1.18,1.8-1.81c0.36-0.4,0.67-0.46,1.17-0.2
				c0.78,0.4,1.6,0.72,2.43,1.01c0.5,0.17,0.74,0.41,0.72,0.97c-0.04,0.88-0.01,1.76-0.01,2.64c0,0.76,0.4,1.16,1.16,1.16
				c1.98,0.01,3.97,0.02,5.95-0.01c0.82-0.01,1.15-0.38,1.16-1.24c0.02-0.88,0.03-1.76,0-2.64c-0.02-0.49,0.19-0.7,0.62-0.86
				c0.87-0.33,1.75-0.66,2.59-1.07c0.45-0.22,0.71-0.15,1.03,0.19c0.6,0.64,1.23,1.26,1.86,1.87c0.61,0.59,1.09,0.6,1.69,0.01
				c1.42-1.39,2.81-2.8,4.21-4.21c0.54-0.55,0.52-1.09-0.02-1.63c-0.64-0.64-1.31-1.26-1.9-1.94c-0.18-0.21-0.25-0.65-0.16-0.92
				c0.3-0.88,0.75-1.71,1.05-2.59c0.18-0.53,0.45-0.7,0.98-0.68c0.85,0.04,1.7,0.03,2.55,0c0.88-0.03,1.19-0.34,1.2-1.19
				c0.01-1.96,0.01-3.91,0-5.87C52.01,28.84,51.66,28.52,50.75,28.5z M50.05,34.48c0,0.12-0.35,0.32-0.54,0.33
				c-0.82,0.04-1.64,0.03-2.47,0.02c-0.7-0.01-1.06,0.34-1.31,0.98c-0.54,1.42-1.12,2.83-1.75,4.22c-0.28,0.61-0.25,1.08,0.22,1.53
				c0.71,0.69,1.42,1.37,2.1,2.02c-1.07,1.07-2.07,2.06-3.16,3.14c-0.55-0.55-1.18-1.18-1.82-1.81c-0.83-0.83-1.04-0.79-2.07-0.29
				c-1.22,0.59-2.48,1.1-3.76,1.53c-0.72,0.25-1.12,0.59-1.11,1.37c0.02,0.79,0.03,1.59-0.02,2.38c-0.01,0.21-0.24,0.58-0.38,0.59
				c-1.29,0.05-2.59,0.03-3.99,0.03c0-1.06-0.01-2.01,0-2.97c0.01-0.78-0.38-1.13-1.1-1.38c-1.3-0.45-2.61-0.94-3.84-1.57
				c-0.83-0.43-1.42-0.41-2.01,0.29c-0.59,0.68-1.2,1.35-1.75,1.97c-1.17-1.17-2.16-2.17-3.33-3.34c0.61-0.55,1.31-1.12,1.96-1.75
				c0.82-0.79,0.77-1,0.3-1.99c-0.59-1.25-1.11-2.53-1.56-3.84c-0.26-0.76-0.66-1.13-1.47-1.11c-0.93,0.02-1.86,0.01-2.9,0.01
				c0-1.38-0.02-2.67,0.03-3.97c0.01-0.15,0.36-0.39,0.56-0.4c0.79-0.05,1.59-0.04,2.38-0.02c0.77,0.02,1.15-0.34,1.4-1.07
				c0.47-1.33,0.98-2.65,1.61-3.91c0.39-0.77,0.35-1.31-0.28-1.87c-0.67-0.6-1.32-1.24-1.91-1.81c1.1-1.1,2.11-2.1,3.26-3.25
				c0.54,0.6,1.2,1.3,1.84,2.02c0.52,0.58,1.03,0.58,1.73,0.24c1.26-0.62,2.57-1.16,3.9-1.63c0.81-0.28,1.24-0.68,1.19-1.58
				c-0.05-0.9-0.01-1.8-0.01-2.82c1.38,0,2.68-0.02,3.97,0.03c0.15,0.01,0.39,0.36,0.4,0.57c0.05,0.79,0.05,1.59,0.01,2.38
				c-0.04,0.79,0.36,1.14,1.07,1.4c1.35,0.49,2.68,1.05,3.97,1.67c0.7,0.34,1.23,0.32,1.74-0.25c0.64-0.72,1.29-1.42,1.87-2.07
				c1.15,1.15,2.15,2.14,3.36,3.35c-0.63,0.55-1.35,1.18-2.07,1.8c-0.62,0.53-0.61,1.07-0.25,1.8c0.61,1.24,1.14,2.52,1.59,3.83
				c0.28,0.83,0.7,1.23,1.59,1.18c0.9-0.04,1.8-0.01,2.84-0.01C50.08,31.84,50.09,33.16,50.05,34.48z"/>
		</g>
		<path class="st2" d="M48.3,30.29c-0.95,0.05-1.4-0.37-1.7-1.27c-0.47-1.4-1.04-2.78-1.7-4.1c-0.39-0.78-0.4-1.36,0.26-1.93
			c0.78-0.67,1.54-1.34,2.22-1.93c-1.3-1.3-2.36-2.36-3.6-3.59c-0.62,0.69-1.32,1.44-2,2.21c-0.55,0.62-1.11,0.63-1.86,0.27
			c-1.38-0.67-2.81-1.26-4.25-1.79c-0.76-0.28-1.18-0.65-1.14-1.5c0.04-0.85,0.04-1.7-0.01-2.55c-0.01-0.22-0.27-0.6-0.43-0.61
			c-1.38-0.05-2.77-0.03-4.25-0.03c0,1.09-0.04,2.06,0.01,3.02c0.05,0.96-0.41,1.39-1.28,1.69c-1.42,0.5-2.82,1.08-4.18,1.74
			c-0.75,0.37-1.3,0.37-1.86-0.26c-0.68-0.77-1.38-1.52-1.97-2.16c-1.24,1.23-2.32,2.3-3.49,3.48c0.63,0.6,1.32,1.29,2.04,1.93
			c0.67,0.6,0.71,1.18,0.3,2c-0.67,1.35-1.23,2.76-1.72,4.19c-0.27,0.78-0.67,1.17-1.5,1.15c-0.85-0.02-1.7-0.03-2.55,0.02
			c-0.22,0.01-0.6,0.27-0.6,0.43c-0.05,1.39-0.03,2.77-0.03,4.25c1.12,0,2.11,0.02,3.11-0.01c0.86-0.02,1.29,0.38,1.57,1.19
			c0.48,1.4,1.04,2.77,1.67,4.11c0.51,1.07,0.56,1.29-0.32,2.13c-0.69,0.67-1.44,1.29-2.1,1.87c1.25,1.25,2.31,2.32,3.57,3.57
			c0.6-0.67,1.25-1.38,1.88-2.11c0.64-0.75,1.27-0.77,2.16-0.31c1.31,0.67,2.71,1.2,4.11,1.68c0.77,0.27,1.19,0.65,1.18,1.48
			c-0.02,1.02,0,2.04,0,3.18c1.5,0,2.89,0.02,4.27-0.03c0.15-0.01,0.4-0.4,0.41-0.63c0.05-0.85,0.04-1.7,0.02-2.55
			c-0.02-0.84,0.41-1.2,1.18-1.47c1.37-0.46,2.72-1.01,4.03-1.64c1.11-0.53,1.33-0.57,2.22,0.31c0.68,0.67,1.36,1.35,1.94,1.93
			c1.17-1.16,2.23-2.22,3.38-3.36c-0.72-0.69-1.48-1.43-2.24-2.16c-0.5-0.49-0.53-0.99-0.24-1.64c0.68-1.48,1.29-2.99,1.88-4.51
			c0.26-0.69,0.65-1.06,1.4-1.05c0.88,0.01,1.76,0.02,2.64-0.02c0.21-0.01,0.58-0.23,0.58-0.36c0.04-1.41,0.03-2.82,0.03-4.32
			C50.23,30.28,49.26,30.24,48.3,30.29z M32.12,43.14c-5.78-0.02-10.47-4.72-10.45-10.5c0.02-5.78,4.7-10.49,10.47-10.51
			c5.82-0.02,10.6,4.79,10.55,10.61C42.63,38.51,37.91,43.16,32.12,43.14z"/>
	</g>
</g>
</svg>
